Lab 0: Getting Started with dplyr – Zhanchao Yang - MUSA 5080 Portfolio
…
Questions to answer: - How many rows and columns does the dataset have? - What types of variables do you see (numeric, character, etc.)? - Are there any column names that might cause problems? Why?

Your answers: - Rows: [YOUR ANSWER] - Columns: [YOUR ANSWER]

- Variable types: [YOUR ANSWER] - Problematic names: [YOUR ANSWER]

1.2 Tibble vs Data Frame

Compare how tibbles and data frames display:

# Look at the tibble version (what we have)
car_data

# A tibble: 50,000 × 7
   Manufacturer Model    `Engine size` `Fuel type` `Year of manufacture` Mileage
   <chr>        <chr>            <dbl> <chr>                       <dbl>   <dbl>
 1 Ford         Fiesta             1   Petrol                       2002  127300
 2 Porsche      718 Cay…           4   Petrol                       2016   57850
 3 Ford         Mondeo             1.6 Diesel                       2014   39190
 4 Toyota       RAV4               1.8 Hybrid                       1988  210814
 5 VW           Polo               1   Petrol                       2006  127869
 6 Ford         Focus              1.4 Petrol                       2018   33603
 7 Ford         Mondeo             1.8 Diesel                       2010   86686
 8 Toyota       Prius              1.4 Hybrid                       2015   30663
 9 VW           Polo               1.2 Petrol                       2012   73470
10 Ford         Focus              2   Diesel                       1992  262514
# ℹ 49,990 more rows
# ℹ 1 more variable: Price <dbl>
…
